<svg xmlns="http://www.w3.org/2000/svg" width="48" height="48" viewBox="0 0 48 48">
    <defs>
        <style>
            .cls-1{fill:none}.cls-2{fill:#adadad;fill-rule:evenodd}
        </style>
    </defs>
    <g id="Group_4640" data-name="Group 4640" transform="translate(-792 -1092)">
        <g id="Group_4664" data-name="Group 4664">
            <path id="Rectangle_2449" d="M0 0h48v48H0z" class="cls-1" data-name="Rectangle 2449" transform="translate(792 1092)"/>
            <g id="Group_3235" data-name="Group 3235" transform="translate(800 1103)">
                <g id="Group_3232" data-name="Group 3232">
                    <path id="Path_2311" d="M1976.368-482.8a2.52 2.52 0 0 1-1.3 2.2 1.735 1.735 0 0 1-.113.059l-.014.007q-.068.032-.138.061l-.026.01q-.06.024-.122.045l-.023.008a2.507 2.507 0 0 1-.3.079h-.007q-.07.013-.14.023h-.032c-.04 0-.08.009-.12.012h-.415l-.065-.007h-.039a2.545 2.545 0 0 1-1.729-1.042l-.021-.029-.035-.052-.028-.044-.029-.048-.03-.052-.025-.045c-.011-.019-.021-.04-.031-.06l-.021-.041a1.31 1.31 0 0 1-.044-.1l-.02-.05-.021-.054c-.008-.02-.015-.041-.021-.061l-.015-.043a1.255 1.255 0 0 1-.021-.069 2.5 2.5 0 0 1-.1-.709v-1.607h5.055zm-1.613 3.7v12.1h-16.809v-9.766a.647.647 0 0 0-.648-.646h-6.351a.647.647 0 0 0-.648.646V-467h-2.756v-12.1h.021c.059.014.118.026.178.037l.043.008c.056.01.112.018.169.025l.05.006c.056.007.112.011.169.015h.049c.071 0 .143.007.215.007H1948.651c.051 0 .1-.007.151-.012l.071-.008.079-.01a3.827 3.827 0 0 0 2.576-1.541l.04-.056.041-.059.041.058.04.057a3.829 3.829 0 0 0 2.576 1.541l.079.01.071.008c.05 0 .1.009.151.012h.435c.051 0 .1-.007.151-.012l.071-.008.079-.01a3.827 3.827 0 0 0 2.576-1.541l.04-.056.041-.059.041.058.04.057a3.828 3.828 0 0 0 2.576 1.541l.079.01.071.008c.05 0 .1.009.151.012h.435c.051 0 .1-.007.151-.012l.071-.008.079-.01a3.827 3.827 0 0 0 2.576-1.541l.04-.056.041-.059.041.058.04.057a3.83 3.83 0 0 0 2.576 1.541l.079.01.071.008c.05 0 .1.009.151.012h.435c.051 0 .1-.007.151-.012l.071-.008.079-.01a3.828 3.828 0 0 0 2.576-1.541l.04-.056.041-.059.041.058.04.057a3.829 3.829 0 0 0 2.576 1.541l.079.01.071.008c.05 0 .1.009.151.012H1973.834c.073 0 .146 0 .219-.007h.051c.058 0 .115-.009.171-.016l.051-.007q.088-.011.176-.027l.039-.007q.1-.019.2-.043h.008zm-23.16 12.1h5.055v-9.12h-5.055zm-5.686-17.413h5.055v1.607a2.512 2.512 0 0 1-.1.707 2.047 2.047 0 0 1-.023.073l-.012.037-.024.067-.017.044-.036.086-.031.069-.024.048-.027.053-.027.05-.027.047-.032.052-.025.039-.038.056-.016.023a2.545 2.545 0 0 1-1.732 1.047h-.039l-.065.007h-.414l-.117-.011h-.035a4.897 4.897 0 0 1-.128-.02h-.018a2.488 2.488 0 0 1-.294-.076l-.03-.01-.106-.038-.042-.017-.1-.042-.039-.018c-.04-.019-.079-.04-.118-.061a2.52 2.52 0 0 1-1.316-2.211zm2.969-5.674h3.922l-1.638 4.382h-4.786zm19.253 0l1.638 4.382h-4.885l-.865-4.382zm-5.433 0l.865 4.382h-4.812l.865-4.382zm-4.4 0l-.865 4.382h-4.885l1.638-4.382zm-3.213 9.783l-.065.007h-.456l-.065-.007h-.039a2.546 2.546 0 0 1-1.729-1.042l-.021-.029-.035-.052-.028-.044-.029-.048-.03-.052-.025-.045-.031-.06-.021-.041a1.874 1.874 0 0 1-.044-.1l-.02-.05-.022-.054c-.008-.02-.014-.041-.021-.061l-.015-.043a1.255 1.255 0 0 1-.021-.069 2.5 2.5 0 0 1-.1-.709v-1.607h5.055v1.607a2.5 2.5 0 0 1-.1.707 2.047 2.047 0 0 1-.023.073l-.012.037-.024.067-.017.044c-.011.029-.023.057-.036.086s-.02.047-.031.069l-.024.048-.027.053-.027.05-.027.047-.032.052-.026.039-.037.056-.016.023a2.545 2.545 0 0 1-1.732 1.047h-.039zm6.351 0l-.065.007h-.456l-.065-.007h-.039a2.545 2.545 0 0 1-1.728-1.042l-.021-.029-.035-.052-.028-.044-.029-.048-.03-.052-.025-.045-.031-.06-.021-.041c-.016-.032-.03-.065-.045-.1l-.02-.05-.021-.054-.022-.061-.015-.043-.021-.069a2.5 2.5 0 0 1-.1-.709v-1.607h5.055v1.607a2.5 2.5 0 0 1-.1.707 2.047 2.047 0 0 1-.023.073l-.013.037-.023.067-.017.044-.036.086-.032.069-.024.048-.027.053-.028.05-.027.047-.031.052-.026.039-.037.056-.016.023a2.547 2.547 0 0 1-1.732 1.047h-.039zm6.351 0l-.065.007H1967.265l-.065-.007h-.039a2.546 2.546 0 0 1-1.729-1.042l-.021-.029-.035-.052-.028-.044-.029-.048-.03-.052-.025-.045-.031-.06-.021-.041a1.874 1.874 0 0 1-.044-.1l-.02-.05-.021-.054-.022-.061-.015-.043-.021-.069a2.517 2.517 0 0 1-.1-.709v-1.607h5.055v1.607a2.507 2.507 0 0 1-.1.707l-.023.073-.013.037-.024.067-.017.044-.036.086-.031.069-.024.048-.027.053-.027.05-.027.047-.032.052-.025.039-.038.056-.017.023a2.544 2.544 0 0 1-1.732 1.047h-.039zm8.106-5.4h-4.737l-1.638-4.382h3.824zm1.774.641a.639.639 0 0 0 0-.072v-.02c0-.02-.007-.039-.012-.058s0-.013 0-.019a.648.648 0 0 0-.024-.07.609.609 0 0 0-.035-.071v-.006l-3.305-5.674a.648.648 0 0 0-.561-.322h-25.23a.648.648 0 0 0-.563.326l-3.24 5.674a.579.579 0 0 0-.034.071v.01a.775.775 0 0 0-.021.063v.019c0 .02-.008.039-.011.059v.018a.725.725 0 0 0 0 .075v2.253a3.806 3.806 0 0 0 1.633 3.122v13.33a.647.647 0 0 0 .648.646h28.488a.647.647 0 0 0 .648-.646V-479.7a3.805 3.805 0 0 0 1.613-3.107v-2.253zm-15.877 14.355h9.293v-5.41h-9.293zm9.941-6.7h-10.589a.647.647 0 0 0-.648.646v6.7a.647.647 0 0 0 .648.646h10.589a.647.647 0 0 0 .648-.646v-6.7a.647.647 0 0 0-.648-.646zm-16.435 4.929a.647.647 0 0 0-.648.646v1.3a.647.647 0 0 0 .648.646.647.647 0 0 0 .648-.646v-1.3a.647.647 0 0 0-.648-.646" class="cls-2" data-name="Path 2311" transform="translate(-1944.613 491.375)"/>
                </g>
            </g>
        </g>
    </g>
</svg>
