<svg xmlns="http://www.w3.org/2000/svg" width="48" height="48" viewBox="0 0 48 48">
    <defs>
        <style>
            .cls-1,.cls-2{fill:none}.cls-1{stroke:#adadad;stroke-linecap:round;stroke-linejoin:round;stroke-width:1.5px}
        </style>
    </defs>
    <g id="Group_4647" data-name="Group 4647" transform="translate(-800 -1226)">
        <g id="Icon_feather-mail" data-name="Icon feather-mail" transform="translate(809 1238.001)">
            <path id="Path_2236" d="M6.005 6h24.042a3.015 3.015 0 0 1 3.005 3.007v18.04a3.015 3.015 0 0 1-3.005 3.007H6.005A3.015 3.015 0 0 1 3 27.047V9.007A3.015 3.015 0 0 1 6.005 6z" class="cls-1" data-name="Path 2236" transform="translate(-3 -6)"/>
            <path id="Path_2237" d="M33.052 9L18.026 19.524 3 9" class="cls-1" data-name="Path 2237" transform="translate(-3 -5.993)"/>
        </g>
        <path id="Rectangle_2451" d="M0 0h48v48H0z" class="cls-2" data-name="Rectangle 2451" transform="translate(800 1226)"/>
    </g>
</svg>
