<svg xmlns="http://www.w3.org/2000/svg" id="Group_4675" width="80.481" height="80" data-name="Group 4675" viewBox="0 0 80.481 80">
    <defs>
        <style>
            .cls-1{fill:none}.cls-2{fill:#707070}.cls-3{fill:#eb5051}.cls-4{fill:#fff}
        </style>
    </defs>
    <path id="Rectangle_2456" d="M0 0h80v80H0z" class="cls-1" data-name="Rectangle 2456"/>
    <g id="Group_5046" data-name="Group 5046" transform="translate(11.252 11.13)">
        <path id="Path_3275" d="M3532.066 223.365l-5.667-6.02a1.279 1.279 0 0 0-1.632-.088 1.1 1.1 0 0 0-.331.8 1.137 1.137 0 0 0 .339.832l3.882 4.12h-49.164a1.124 1.124 0 0 0 0 2.248h49.164l-3.881 4.118a1.233 1.233 0 0 0-.317.867 1.063 1.063 0 0 0 .308.771 1.023 1.023 0 0 0 .716.261 1.356 1.356 0 0 0 .92-.353l5.663-6.016a1.09 1.09 0 0 0 .3-.773 1.254 1.254 0 0 0-.3-.767z" class="cls-2" data-name="Path 3275" transform="translate(-3478.37 -217.001)"/>
        <path id="Path_3276" d="M3478.675 466.533l5.666 6.02a1.279 1.279 0 0 0 1.632.088 1.1 1.1 0 0 0 .331-.8 1.132 1.132 0 0 0-.339-.832l-3.882-4.12h49.163a1.124 1.124 0 0 0 0-2.248h-49.163l3.88-4.118a1.234 1.234 0 0 0 .318-.867 1.066 1.066 0 0 0-.308-.771 1.023 1.023 0 0 0-.716-.261 1.355 1.355 0 0 0-.92.353l-5.663 6.016a1.089 1.089 0 0 0-.3.773 1.253 1.253 0 0 0 .301.767z" class="cls-2" data-name="Path 3276" transform="translate(-3478.37 -418.38)"/>
        <g id="Group_4452" data-name="Group 4452" transform="translate(11.261 11.52)">
            <path id="Path_3277" d="M3615.7 327.839h-.714c-1.6-.094-2.412-.756-2.412-1.968a2.709 2.709 0 0 1 2.41-2.683h.62a2.374 2.374 0 0 1 2.409 2.326 1.18 1.18 0 0 0 2.36 0 4.538 4.538 0 0 0-3.863-4.5v-1.224a1.18 1.18 0 0 0-2.36 0v1.229a5.007 5.007 0 0 0-3.862 4.852c0 2.476 1.763 4.106 4.614 4.256h.7c1.6.094 2.412.756 2.412 1.968a2.709 2.709 0 0 1-2.41 2.683h-.62a2.375 2.375 0 0 1-2.409-2.326 1.18 1.18 0 1 0-2.359 0 4.537 4.537 0 0 0 3.864 4.5v1.221a1.18 1.18 0 1 0 2.359 0v-1.229a5.008 5.008 0 0 0 3.863-4.859c-.077-2.469-1.84-4.097-4.602-4.246z" class="cls-2" data-name="Path 3277" transform="translate(-3599.518 -313.208)"/>
            <path id="Path_3278" d="M3561.729 317.651a15.739 15.739 0 1 1 15.739-15.739 15.785 15.785 0 0 1-15.739 15.739zm0-29.331a13.593 13.593 0 1 0 13.593 13.593 13.586 13.586 0 0 0-13.593-13.593z" class="cls-2" data-name="Path 3278" transform="translate(-3545.99 -286.174)"/>
        </g>
    </g>
    <g id="Group_5047" data-name="Group 5047" transform="translate(56.123 52.773)">
        <g id="Group_3413" data-name="Group 3413">
            <path id="Icon_ionic-ios-warning" d="M13.966 5.431L3.6 24.353a1.78 1.78 0 0 0 1.587 2.629h20.74a1.783 1.783 0 0 0 1.587-2.629L17.139 5.431a1.818 1.818 0 0 0-3.173 0z" class="cls-3" data-name="Icon ionic-ios-warning" transform="translate(-3.375 -4.5)"/>
            <path id="Path_2414" d="M142.4 323.736a1.025 1.025 0 0 1-1.136-1.136v-.322a1.025 1.025 0 0 1 1.136-1.136h.246a1.025 1.025 0 0 1 1.136 1.136v.322a1.025 1.025 0 0 1-1.136 1.136zm.133-4.186q-.644 0-.7-.72l-.549-6.969a1.3 1.3 0 0 1 .312-.985 1.165 1.165 0 0 1 .919-.4 1.194 1.194 0 0 1 .928.4 1.225 1.225 0 0 1 .3.985l-.53 6.969q-.056.721-.681.721z" class="cls-4" data-name="Path 2414" transform="translate(-130.555 -303.665)"/>
        </g>
    </g>
</svg>
