<svg xmlns="http://www.w3.org/2000/svg" width="24" height="20.506" viewBox="0 0 24 20.506">
    <defs>
        <style>
            .cls-1{fill:#eda92a}
        </style>
    </defs>
    <path id="Path_3346" d="M8.8-22.9a4.262 4.262 0 0 0 4.352-4.615A4.066 4.066 0 0 0 8.8-31.671a1.826 1.826 0 0 0-.593.066c0-3.824 1.846-6.264 5.473-8.308l-1.846-3.495q-8.306 4.353-8.306 13.056C3.528-25.6 5.374-22.9 8.8-22.9zm13.846 0A4.262 4.262 0 0 0 27-27.517a4.066 4.066 0 0 0-4.352-4.154 1.826 1.826 0 0 0-.593.066c0-3.824 1.846-6.264 5.473-8.308l-1.846-3.495q-8.308 4.352-8.308 13.055c0 4.753 1.846 7.453 5.275 7.453z" class="cls-1" data-name="Path 3346" transform="translate(-3.528 43.407)"/>
</svg>
