<svg xmlns="http://www.w3.org/2000/svg" width="24" height="19.593" viewBox="0 0 24 19.593">
    <defs>
        <style>
            .cls-1{fill:#eda92a}
        </style>
    </defs>
    <path id="Path_3347" d="M8.8-23.814a4.161 4.161 0 0 0 4.352-4.41c0-2.52-1.978-3.969-4.352-3.969a1.906 1.906 0 0 0-.593.063c0-3.654 1.846-5.985 5.473-7.938l-1.846-3.339q-8.306 4.158-8.306 12.474c0 4.533 1.846 7.119 5.272 7.119zm13.846 0A4.161 4.161 0 0 0 27-28.224c0-2.52-1.978-3.969-4.352-3.969a1.906 1.906 0 0 0-.593.063c0-3.654 1.846-5.985 5.473-7.938l-1.846-3.339q-8.308 4.158-8.308 12.474c0 4.533 1.846 7.119 5.275 7.119z" class="cls-1" data-name="Path 3347" transform="rotate(180 13.764 -11.907)"/>
</svg>
