<svg xmlns="http://www.w3.org/2000/svg" id="prefix__BotMenu" width="80" height="226" viewBox="0 0 80 226">
    <defs>
        <linearGradient id="prefix__linear-gradient" x1=".5" x2=".5" y2="1" gradientUnits="objectBoundingBox">
            <stop offset="0" stop-color="#f9de00"/>
            <stop offset="1" stop-color="#f5b700"/>
        </linearGradient>
        <clipPath id="prefix__clip-path">
            <path id="prefix__Caminho_4888" d="M0 0h80v226H0z" class="prefix__cls-1" data-name="Caminho 4888"/>
        </clipPath>
        <style>
            .prefix__cls-1{fill:url(#prefix__linear-gradient)}
        </style>
    </defs>
    <g id="prefix__Grupo_5223" data-name="Grupo 5223">
        <path id="prefix__Caminho_4888-2" d="M0 0h80v226H0z" class="prefix__cls-1" data-name="Caminho 4888"/>
    </g>
    <g id="prefix__Grupo_de_máscara_1" data-name="Grupo de máscara 1">
        <g id="prefix__Grupo_5244" data-name="Grupo 5244" transform="translate(-95.762 -75)">
            <path id="prefix__Caminho_4087" d="M134.607 0c74.225 0 134.611 60.386 134.611 134.609s-60.386 134.609-134.611 134.609a11.352 11.352 0 0 1 0-22.7 111.9 111.9 0 1 0-111.9-111.9 11.352 11.352 0 1 1-22.7 0C0 60.386 60.384 0 134.607 0z" data-name="Caminho 4087" transform="rotate(-73 153.093 174.13)" style="opacity:.46;fill:#ffd95a"/>
            <path id="prefix__Caminho_4088" d="M1004.914 1121.57c-98.974 0-179.5-80.521-179.5-179.5s80.521-179.493 179.5-179.493a15.137 15.137 0 1 1 0 30.274c-82.278 0-149.219 66.94-149.219 149.219s66.941 149.219 149.219 149.219 149.219-66.938 149.219-149.219a15.138 15.138 0 0 1 30.277 0c0 98.979-80.521 179.5-179.496 179.5z" data-name="Caminho 4088" transform="translate(-895.019 -762.581)" style="fill:#fff100;opacity:.46"/>
            <path id="prefix__Caminho_4090" d="M547.714 806.8a85.434 85.434 0 1 1 85.436-85.433 85.53 85.53 0 0 1-85.436 85.433zm0-148.286a62.852 62.852 0 1 0 62.854 62.854 62.924 62.924 0 0 0-62.854-62.853z" data-name="Caminho 4090" transform="translate(-447.074 -404.801)" style="opacity:.58;fill:#ff0"/>
            <path id="prefix__Caminho_4091" d="M525.668 772.116a74.143 74.143 0 1 1 74.145-74.141 74.227 74.227 0 0 1-74.145 74.141zm0-128.687a54.546 54.546 0 1 0 54.546 54.546 54.608 54.608 0 0 0-54.546-54.547z" data-name="Caminho 4091" transform="translate(-380.022 -478.744)" style="fill:#fff;opacity:.58"/>
        </g>
    </g>
</svg>
