<svg xmlns="http://www.w3.org/2000/svg" id="Camada_2" width="223" height="42.766" data-name="Camada 2" viewBox="0 0 223 42.766">
    <defs>
        <linearGradient id="linear-gradient" x1=".5" x2=".5" y1="-.293" y2="1.232" gradientUnits="objectBoundingBox">
            <stop offset=".07" stop-color="#fff"/>
            <stop offset="1" stop-color="#fff" stop-opacity="0"/>
        </linearGradient>
        <style>
            .cls-1{fill:#3c3c3b}.cls-2{fill:#4bb9b5}.cls-3{fill:none}
        </style>
    </defs>
    <g id="Camada_1" data-name="Camada 1">
        <path id="Path_5122" d="M161.61 35.846v-.063a11.971 11.971 0 0 1 23.932-.063v.063a11.55 11.55 0 0 1-1.992 6.465l.964.8a2.423 2.423 0 0 1 .9 1.866 2.323 2.323 0 0 1-3.958 1.677l-1.237-1.1a12.3 12.3 0 0 1-6.708 1.929 11.53 11.53 0 0 1-11.901-11.574zm11.71 2.541a2.335 2.335 0 0 1 2.314-2.348 2.3 2.3 0 0 1 1.652.675l2.474 2.222a7.9 7.9 0 0 0 .612-3.09v-.063a6.84 6.84 0 0 0-6.817-7.077 6.732 6.732 0 0 0-6.75 7.014v.063a6.84 6.84 0 0 0 6.817 7.077 6.75 6.75 0 0 0 2.96-.612l-2.348-2a2.423 2.423 0 0 1-.914-1.866z" class="cls-1" data-name="Path 5122" transform="translate(-93.852 -14.019)"/>
        <path id="Path_5123" d="M239.634 52.356a2.449 2.449 0 0 1-4.893 0v-.193a6.087 6.087 0 0 1-5.031 2.767c-3.7 0-5.87-2.444-5.87-6.4v-8.916a2.444 2.444 0 1 1 4.889 0v7.371c0 2.314 1.094 3.505 2.96 3.505s3.052-1.191 3.052-3.505v-7.371a2.449 2.449 0 0 1 4.893 0z" class="cls-1" data-name="Path 5123" transform="translate(-129.991 -21.586)"/>
        <path id="Path_5124" d="M268 24.655c0-1.417 1.191-2.285 2.734-2.285s2.717.868 2.717 2.285v.075a2.761 2.761 0 0 1-5.451 0zm.268 6.364a2.444 2.444 0 1 1 4.889 0v12.742a2.444 2.444 0 1 1-4.889 0z" class="cls-1" data-name="Path 5124" transform="translate(-155.636 -12.991)"/>
        <path id="Path_5125" d="M285.449 45.907v-.063a8.851 8.851 0 0 1 9.035-8.977 8.538 8.538 0 0 1 5.87 1.933 2.155 2.155 0 0 1 .771 1.677 2.193 2.193 0 0 1-2.218 2.189 2.289 2.289 0 0 1-1.413-.482 4.671 4.671 0 0 0-3.056-1.094 4.414 4.414 0 0 0-4.193 4.7v.067c0 2.637 1.706 4.759 4.377 4.759a4.935 4.935 0 0 0 3.217-1.191 2.268 2.268 0 0 1 1.32-.448 2.075 2.075 0 0 1 1.35 3.635 8.5 8.5 0 0 1-6.113 2.218 8.8 8.8 0 0 1-8.947-8.918z" class="cls-1" data-name="Path 5125" transform="translate(-165.769 -21.409)"/>
        <path id="Path_5126" d="M327.41 24.879a2.449 2.449 0 0 1 4.893 0v10.678l6.109-5.79a3.009 3.009 0 0 1 2.155-1.094 2.138 2.138 0 0 1 2.155 2.189 2.921 2.921 0 0 1-1.124 2.121L337.72 36.3l4.612 6.209a2.562 2.562 0 0 1 .612 1.576 2.218 2.218 0 0 1-2.289 2.218 2.323 2.323 0 0 1-2.1-1.124l-4.276-5.87-1.962 1.769v2.8a2.449 2.449 0 0 1-4.893 0z" class="cls-1" data-name="Path 5126" transform="translate(-190.138 -13.085)"/>
        <path id="Path_5127" d="M367.54 35.846v-.063a11.443 11.443 0 0 1 11.74-11.643 12.011 12.011 0 0 1 7.547 2.281 2.486 2.486 0 0 1 .964 1.962 2.415 2.415 0 0 1-2.449 2.407 2.621 2.621 0 0 1-1.48-.482 7.4 7.4 0 0 0-4.612-1.61c-3.8 0-6.532 3.153-6.532 7.014v.063c0 3.861 2.671 7.077 6.532 7.077a7.245 7.245 0 0 0 4.889-1.769 2.294 2.294 0 0 1 2.96 3.505 11.866 11.866 0 0 1-19.559-8.742z" class="cls-2" data-name="Path 5127" transform="translate(-213.442 -14.019)"/>
        <path id="Path_5128" d="M419 49.705v-.067c0-3.773 2.864-5.5 6.947-5.5a12.2 12.2 0 0 1 4.214.709v-.289c0-2.025-1.258-3.153-3.7-3.153a11.2 11.2 0 0 0-3.375.482 2.1 2.1 0 0 1-.709.13 1.987 1.987 0 0 1-2.025-2 2.021 2.021 0 0 1 1.316-1.9 15.01 15.01 0 0 1 5.5-.9c2.671 0 4.612.709 5.824 1.929a7.534 7.534 0 0 1 1.866 5.5v7.828a2.348 2.348 0 0 1-2.381 2.348 2.188 2.188 0 0 1-2.348-2.025v-.027a6.624 6.624 0 0 1-5.211 2.189c-3.239 0-5.918-1.866-5.918-5.254zm11.228-1.128v-.889a7.588 7.588 0 0 0-3.119-.641c-2.1 0-3.379.839-3.379 2.377v.067c0 1.316 1.094 2.1 2.671 2.1 2.293-.008 3.836-1.262 3.836-3.031z" class="cls-2" data-name="Path 5128" transform="translate(-243.327 -21.615)"/>
        <path id="Path_5129" d="M463.06 39.607a2.444 2.444 0 1 1 4.889 0v.771c.709-1.677 1.866-3.216 3.316-3.216a2.361 2.361 0 0 1 .545 4.662c-2.478.579-3.862 2.478-3.862 5.954v4.57a2.444 2.444 0 1 1-4.889 0z" class="cls-2" data-name="Path 5129" transform="translate(-268.914 -21.578)"/>
        <path id="Path_5130" d="M506.8 43.72a2.444 2.444 0 1 1-4.889 0v-.226a6.329 6.329 0 0 1-5.371 2.8c-4.021 0-7.849-3.153-7.849-8.909v-.067c0-5.757 3.773-8.909 7.849-8.909a6.62 6.62 0 0 1 5.371 2.57v-6.235a2.444 2.444 0 0 1 4.889 0zm-13.219-6.4v.067c0 2.864 1.929 4.759 4.193 4.759s4.193-1.9 4.193-4.759v-.067c0-2.859-1.9-4.759-4.193-4.759s-4.195 1.864-4.195 4.757z" class="cls-2" data-name="Path 5130" transform="translate(-283.798 -12.95)"/>
        <path id="Path_5131" d="M22 0C9.664 0 0 9.392 0 21.383v.117c0 12.113 9.413 21.265 21.89 21.265a22.64 22.64 0 0 0 11.777-3.245l1.723 1.535a4.851 4.851 0 0 0 8.276-3.488 5.077 5.077 0 0 0-1.862-3.878L40.6 32.7a21.152 21.152 0 0 0 3.3-11.32v-.113C43.9 9.14 34.485 0 22 0zm11.235 21.492a13.609 13.609 0 0 1-.654 4.193l-3.589-3.212a4.775 4.775 0 0 0-3.4-1.379 4.88 4.88 0 0 0-4.847 4.9 5.065 5.065 0 0 0 1.857 3.874l3.224 2.738a12.134 12.134 0 0 1-3.828.57c-6.465 0-11.32-5.073-11.32-11.8v-.113c0-6.662 4.826-11.685 11.228-11.685 6.469 0 11.345 5.069 11.345 11.8z" class="cls-1" data-name="Path 5131"/>
        <path id="Path_5132" d="M116.876 71.109a4.1 4.1 0 0 0-2.62.969 12.74 12.74 0 0 1-7.748 3.107 7.09 7.09 0 0 1 1.019 3.677A7.186 7.186 0 0 1 106 83.293a19.827 19.827 0 0 0 13.5-5 4.05 4.05 0 0 0-2.625-7.182z" class="cls-2" data-name="Path 5132" transform="translate(-61.558 -41.295)"/>
        <path id="Path_5133" d="M36.658 22.849c-6.4 0-11.228 5.031-11.228 11.685v.117c0 6.708 4.876 11.8 11.341 11.8a12.134 12.134 0 0 0 3.828-.57l-3.224-2.738a5.065 5.065 0 0 1-1.857-3.878 4.88 4.88 0 0 1 4.847-4.9 4.775 4.775 0 0 1 3.4 1.379l3.589 3.216A13.609 13.609 0 0 0 48 34.764v-.113a13.056 13.056 0 0 0-.222-2.423 11.693 11.693 0 0 0-2.574-5.492 11.052 11.052 0 0 0-8.549-3.887z" class="cls-3" data-name="Path 5133" transform="translate(-14.768 -13.269)"/>
        <path id="Path_5134" fill="#1d1d1b" d="M72.57 25.329v.247a11.693 11.693 0 0 1 2.574 5.492c.034-.092.063-.184.1-.285 1.392-4.264 6.054-5.87 8.842-6.461a20.067 20.067 0 0 0-2.025-3.463l-4.117 1.128z" data-name="Path 5134" transform="translate(-42.144 -12.114)"/>
        <path id="Path_5135" d="M36.658 22.85c-6.4 0-11.228 5.031-11.228 11.685v.537c.193 6.524 5 11.391 11.32 11.391a12.134 12.134 0 0 0 3.828-.57l-3.224-2.738a5.065 5.065 0 0 1-1.836-3.891 4.88 4.88 0 0 1 4.847-4.9 4.775 4.775 0 0 1 3.4 1.379l3.589 3.216A13.609 13.609 0 0 0 48 34.766v-.113a13.417 13.417 0 0 0-.113-1.61A11.185 11.185 0 0 0 36.658 22.85z" class="cls-3" data-name="Path 5135" transform="translate(-14.768 -13.27)"/>
        <path id="Path_5136" fill="url(#linear-gradient)" d="M10.662 21.383v-.113c0-6.662 4.83-11.685 11.228-11.685a11.206 11.206 0 0 1 11.245 10.192h.495c3.48 0 6.9.134 10.239.39C43.315 8.591 34.1 0 22 0 9.664 0 0 9.392 0 21.383v.117a22.586 22.586 0 0 0 .172 2.738c3.354-.956 6.847-1.778 10.5-2.444-.002-.143-.01-.277-.01-.411z" data-name="Path 5136" opacity="0.35"/>
        <path id="Path_5137" d="M89.868 5.815c-3.3-2.449-7.354-4.046-13.337-4.046a21.5 21.5 0 0 0-10.209 2.469 19.769 19.769 0 0 0-7.61 7.224c-.13.214-.247.44-.369.662-.054.092-.109.189-.159.285l-.038.067c-.034.071-.071.138-.1.21l-.138.268c-.092.189-.18.377-.268.57a.07.07 0 0 1-.034.067c-.088.193-.176.39-.26.587s-.159.419-.239.616-.164.419-.239.65l-.176.549c-.075.252-.155.5-.226.75a.672.672 0 0 1-.042.176 21.319 21.319 0 0 0-.474 2.335c-.042.3-.075.6-.1.9a7.128 7.128 0 0 1 7.1 1.6l.419.361 1.036.981q.059-.247.113-.528c.319-1.459.75-3.442.75-3.446a11.728 11.728 0 0 1 7.572-8.7 11.4 11.4 0 0 1 3.622-.549 13.12 13.12 0 0 1 8.138 2.843 4.612 4.612 0 0 0 2.625.839 4.281 4.281 0 0 0 4.331-4.277 4.4 4.4 0 0 0-1.688-3.463z" class="cls-2" data-name="Path 5137" transform="translate(-32.428 -1.027)"/>
    </g>
</svg>
