<svg xmlns="http://www.w3.org/2000/svg" width="112" height="112" viewBox="0 0 112 112">
    <defs>
        <style>
            .cls-1{fill:#3d3d3d;opacity:.5}.cls-2{opacity:.8}.cls-3{fill:#fff}
        </style>
    </defs>
    <g id="Group_4606" data-name="Group 4606" transform="translate(-137 -376)">
        <circle id="Ellipse_490" cx="56" cy="56" r="56" class="cls-1" data-name="Ellipse 490" transform="translate(137 376)"/>
        <g id="Group_3262" class="cls-2" data-name="Group 3262" transform="translate(177 419)">
            <path id="Path_2327" d="M1132.356-618.717a4.041 4.041 0 0 1-4.041 4.041h-17.674a4.041 4.041 0 0 1-4.041-4.041v-10.31a4.041 4.041 0 0 1 4.041-4.041h2a1.679 1.679 0 0 0 .959-.3 1.679 1.679 0 0 0 .619-.8l.535-1.465a2.034 2.034 0 0 1 1.813-1.057h5.7a2.09 2.09 0 0 1 1.85 1.133.946.946 0 0 0 1.284.378.946.946 0 0 0 .378-1.284 3.966 3.966 0 0 0-3.512-2.115h-5.665a4 4 0 0 0-3.512 2.115l-.567 1.548h-1.888a5.929 5.929 0 0 0-5.929 5.929v10.31a5.929 5.929 0 0 0 5.929 5.929h17.674a5.929 5.929 0 0 0 5.929-5.929v-6.987a.944.944 0 0 0-.944-.944.944.944 0 0 0-.944.944z" class="cls-3" data-name="Path 2327" transform="translate(-1104.712 638.582)"/>
            <path id="Path_2328" d="M1133.083-620.394a7.154 7.154 0 0 0-8.182 8.182 7.145 7.145 0 0 0 5.916 5.916 7.154 7.154 0 0 0 8.182-8.182 7.145 7.145 0 0 0-5.916-5.916zm-.8 12.288a5.241 5.241 0 0 1-5.576-5.576 5.279 5.279 0 0 1 4.9-4.9 5.241 5.241 0 0 1 5.576 5.576 5.28 5.28 0 0 1-4.897 4.9z" class="cls-3" data-name="Path 2328" transform="translate(-1117.221 627.318)"/>
            <path id="Path_2329" d="M1169.563-633.319v-2.719a.944.944 0 0 0-.944-.944.944.944 0 0 0-.944.944v2.719h-2.719a.944.944 0 0 0-.944.944.944.944 0 0 0 .944.944h2.719v2.681a.944.944 0 0 0 .944.944.944.944 0 0 0 .944-.944v-2.681h2.719a.944.944 0 0 0 .944-.944.944.944 0 0 0-.944-.944z" class="cls-3" data-name="Path 2329" transform="translate(-1141.617 637.586)"/>
        </g>
    </g>
</svg>
