<svg xmlns="http://www.w3.org/2000/svg" width="48" height="48" viewBox="0 0 48 48">
    <defs>
        <style>
            .prefix__cls-2{fill:#adadad}
        </style>
    </defs>
    <g id="prefix__Grupo_5367" data-name="Grupo 5367" transform="translate(-792 -1092)">
        <g id="prefix__Grupo_4662" data-name="Grupo 4662">
            <path id="prefix__Retângulo_2449" d="M0 0H48V48H0z" data-name="Retângulo 2449" transform="translate(792 1092)" style="fill:none"/>
            <g id="prefix__Grupo_4661" data-name="Grupo 4661" transform="translate(-1003.643 203.577)">
                <path id="prefix__Caminho_3340" d="M1805.879 919.381a.805.805 0 00-.232.647l.5 5.047a.806.806 0 00.721.722l5.046.5a.673.673 0 00.079 0 .8.8 0 00.568-.236l8.2-8.2a9.925 9.925 0 10-6.68-6.68l-2.914 2.914a.8.8 0 00-.234.589l.02.759-.664-.061a.806.806 0 00-.877.8v.962l-1.1.085a.8.8 0 00-.507.233zm1.406.868l1.44-1.439 1.551-.12a.8.8 0 00.742-.8v-.825l.687.063a.818.818 0 00.623-.214.8.8 0 00.253-.608l-.034-1.317 2.207-2.208a12.064 12.064 0 001.282 1.987l-6.391 6.392a.8.8 0 101.137 1.136l6.929-6.929a.8.8 0 000-1.136 10.725 10.725 0 01-1.959-3.106 8.365 8.365 0 011.959-8.656 8.312 8.312 0 113.1 13.719.774.774 0 00-.267-.047.8.8 0 00-.568.236l-8.28 8.28-4.011-.4z" class="prefix__cls-2" data-name="Caminho 3340"/>
                <path id="prefix__Caminho_3341" d="M1834.316 907.248a3.165 3.165 0 102.239-.928 3.145 3.145 0 00-2.239.928zm.681 2.239a1.558 1.558 0 112.659 1.1 1.6 1.6 0 01-2.2 0 1.556 1.556 0 01-.456-1.101z" class="prefix__cls-2" data-name="Caminho 3341" transform="translate(-10.976 -3.124)"/>
            </g>
        </g>
    </g>
</svg>
