<svg xmlns="http://www.w3.org/2000/svg" width="48" height="48" viewBox="0 0 48 48">
    <defs>
        <style>
            .cls-1,.cls-2{fill:none}.cls-3,.cls-4{stroke:none}.cls-4{fill:#ffa701}
        </style>
    </defs>
    <g id="Icon_Notification" data-name="Icon Notification" transform="translate(-240 -16)">
        <path id="Rectangle_2405" d="M0 0h48v48H0z" class="cls-1" data-name="Rectangle 2405" transform="translate(240 16)"/>
        <g id="Icon_ionic-md-notifications-outline" class="cls-2" data-name="Icon ionic-md-notifications-outline">
            <path d="M21.479 3.3770000000000007a2.74 2.74 0 0 0-2.783 2.8v1.3A12.082 12.082 0 0 0 9.417 19.22s.928 5.515 0 9.01-2.784 3.57-3.711 4.97 0 1.864 0 1.864h31.546s.928-.466 0-1.864-2.783-1.476-3.711-4.971 0-9.01 0-9.01a12.082 12.082 0 0 0-9.279-11.743v-1.3a2.74 2.74 0 0 0-2.783-2.8zm3.711 33.552h-7.423a3.711 3.711 0 1 0 7.423 0z" class="cls-3" transform="translate(242.336 17.984)"/>
            <path d="M21.479 3.375c-1.578 0-2.784 1.211-2.784 2.796v1.305c-5.289 1.212-9.278 6.058-9.278 11.744 0 0 .928 5.514 0 9.01-.928 3.495-2.784 3.572-3.711 4.97-.928 1.398 0 1.864 0 1.864h31.546s.927-.466 0-1.864c-.928-1.398-2.784-1.475-3.712-4.97-.927-3.496 0-9.01 0-9.01 0-5.686-3.99-10.532-9.278-11.744V6.17c0-1.585-1.206-2.796-2.783-2.796m-3.712 33.554c0 2.05 1.67 3.728 3.712 3.728 2.041 0 3.71-1.678 3.71-3.728h-7.422M21.48 1.375c2.619 0 4.683 2.008 4.78 4.606a14.041 14.041 0 0 1 6.187 4.44 14.143 14.143 0 0 1 3.094 8.799v.167l-.027.165c-.237 1.418-.707 5.651-.04 8.164.449 1.69 1.068 2.172 1.851 2.782.52.405 1.107.863 1.594 1.596.849 1.28.82 2.325.647 2.978a2.814 2.814 0 0 1-1.416 1.78l-.423.212H27.188c-.072 3.096-2.606 5.593-5.71 5.593-3.103 0-5.637-2.497-5.71-5.593H5.232l-.423-.212a2.814 2.814 0 0 1-1.416-1.78c-.173-.653-.202-1.699.647-2.978.487-.733 1.075-1.191 1.594-1.596.783-.61 1.402-1.092 1.85-2.782.668-2.513.198-6.746-.039-8.166l-.027-.163v-.167c0-3.18 1.099-6.304 3.094-8.799a14.041 14.041 0 0 1 6.188-4.44c.096-2.598 2.16-4.606 4.78-4.606z" class="cls-4" transform="translate(242.336 17.984)"/>
        </g>
    </g>
</svg>
