<svg xmlns="http://www.w3.org/2000/svg" width="200" height="30.998" viewBox="0 0 200 30.998">
    <defs>
        <style>
            .prefix__cls-1{fill:#3c3c3b}.prefix__cls-2{fill:#4bb9b5}
        </style>
    </defs>
    <g id="prefix__Grupo_5221" data-name="Grupo 5221" transform="translate(-179.564 -353.283)">
        <path id="prefix__Caminho_4845" d="M179.564 370.768v-.083c0-8.247 6.506-15 15.458-15S210.4 362.356 210.4 370.6v.083a14.881 14.881 0 0 1-2.569 8.33l1.243 1.036a3.13 3.13 0 0 1 1.16 2.4 2.989 2.989 0 0 1-5.1 2.155l-1.575-1.409a15.81 15.81 0 0 1-8.62 2.487c-8.952.005-15.375-6.667-15.375-14.914zm15.084 3.274a3.006 3.006 0 0 1 2.984-3.025 2.946 2.946 0 0 1 2.114.87l3.191 2.859a10.168 10.168 0 0 0 .788-3.978v-.083a8.814 8.814 0 0 0-8.785-9.117c-5.139 0-8.7 4.061-8.7 9.034v.083a8.813 8.813 0 0 0 8.785 9.117 8.717 8.717 0 0 0 3.813-.788l-3.025-2.569a3.131 3.131 0 0 1-1.165-2.403z" class="prefix__cls-1" data-name="Caminho 4845" transform="translate(0 -1.406)"/>
        <path id="prefix__Caminho_4846" d="M281.039 392.248a3.15 3.15 0 0 1-6.3 0V392c-1.45 1.865-3.315 3.564-6.506 3.564-4.766 0-7.542-3.149-7.542-8.247v-11.479a3.149 3.149 0 1 1 6.3 0v9.49c0 2.984 1.409 4.517 3.813 4.517s3.937-1.533 3.937-4.517v-9.49a3.15 3.15 0 0 1 6.3 0z" class="prefix__cls-1" data-name="Caminho 4846" transform="translate(-47.518 -11.366)"/>
        <path id="prefix__Caminho_4847" d="M318.211 356.325c0-1.823 1.534-2.942 3.523-2.942s3.522 1.119 3.522 2.942v.083c0 1.823-1.533 2.984-3.522 2.984s-3.523-1.16-3.523-2.984zm.373 8.206a3.149 3.149 0 1 1 6.3 0v16.411a3.149 3.149 0 0 1-6.3 0z" class="prefix__cls-1" data-name="Caminho 4847" transform="translate(-81.208 -.059)"/>
        <path id="prefix__Caminho_4848" d="M341.018 383.934v-.083a11.4 11.4 0 0 1 11.645-11.562 11.116 11.116 0 0 1 7.584 2.487 2.792 2.792 0 0 1 .994 2.155 2.83 2.83 0 0 1-2.859 2.818 2.965 2.965 0 0 1-1.824-.621 6 6 0 0 0-3.937-1.409c-3.149 0-5.387 2.776-5.387 6.05v.083c0 3.4 2.2 6.133 5.636 6.133a6.382 6.382 0 0 0 4.144-1.533 2.933 2.933 0 0 1 1.7-.58 2.673 2.673 0 0 1 1.741 4.683 10.928 10.928 0 0 1-7.874 2.859 11.341 11.341 0 0 1-11.563-11.48z" class="prefix__cls-1" data-name="Caminho 4848" transform="translate(-94.566 -11.132)"/>
        <path id="prefix__Caminho_4849" d="M395.737 356.432a3.149 3.149 0 1 1 6.3 0v13.759l7.874-7.46a3.87 3.87 0 0 1 2.776-1.409 2.758 2.758 0 0 1 2.777 2.818 3.767 3.767 0 0 1-1.451 2.735l-4.973 4.268 5.926 8a3.317 3.317 0 0 1 .787 2.031 2.856 2.856 0 0 1-2.942 2.859 3 3 0 0 1-2.735-1.45L404.564 375l-2.528 2.279v3.605a3.149 3.149 0 0 1-6.3 0z" class="prefix__cls-1" data-name="Caminho 4849" transform="translate(-126.616)"/>
        <path id="prefix__Caminho_4850" d="M448.055 370.768v-.083a14.743 14.743 0 0 1 15.126-15 15.361 15.361 0 0 1 9.7 2.942 3.194 3.194 0 0 1 1.243 2.528 3.114 3.114 0 0 1-3.15 3.108 3.354 3.354 0 0 1-1.906-.621 9.543 9.543 0 0 0-5.926-2.073c-4.89 0-8.413 4.061-8.413 9.034v.083c0 4.973 3.44 9.117 8.413 9.117a9.309 9.309 0 0 0 6.3-2.279 2.956 2.956 0 1 1 3.813 4.517 15.285 15.285 0 0 1-25.2-11.272z" class="prefix__cls-2" data-name="Caminho 4850" transform="translate(-157.26 -1.406)"/>
        <path id="prefix__Caminho_4851" d="M515.177 388.767v-.083c0-4.849 3.688-7.086 8.951-7.086a15.785 15.785 0 0 1 5.428.911v-.373c0-2.61-1.616-4.061-4.765-4.061a14.445 14.445 0 0 0-4.351.622 2.678 2.678 0 0 1-.912.166 2.565 2.565 0 0 1-2.61-2.569 2.61 2.61 0 0 1 1.7-2.445 19.332 19.332 0 0 1 7.086-1.161c3.44 0 5.926.912 7.5 2.487 1.657 1.658 2.4 4.1 2.4 7.086v10.111a3.025 3.025 0 0 1-3.067 3.025 2.82 2.82 0 0 1-3.025-2.61v-.042a8.54 8.54 0 0 1-6.713 2.818c-4.182 0-7.622-2.403-7.622-6.796zm14.463-1.45V386.2a9.771 9.771 0 0 0-4.02-.829c-2.694 0-4.351 1.078-4.351 3.067v.083c0 1.7 1.409 2.694 3.44 2.694 2.942-.003 4.931-1.615 4.931-3.898z" class="prefix__cls-2" data-name="Caminho 4851" transform="translate(-196.574 -11.366)"/>
        <path id="prefix__Caminho_4852" d="M572.6 375.838a3.15 3.15 0 1 1 6.3 0v.994c.911-2.155 2.4-4.144 4.268-4.144a3.043 3.043 0 0 1 .7 6.009c-3.191.746-4.973 3.191-4.973 7.667v5.884a3.15 3.15 0 0 1-6.3 0z" class="prefix__cls-2" data-name="Caminho 4852" transform="translate(-230.206 -11.366)"/>
        <path id="prefix__Caminho_4853" d="M629.34 380.883a3.149 3.149 0 0 1-6.3 0v-.29a8.159 8.159 0 0 1-6.921 3.605c-5.18 0-10.111-4.062-10.111-11.479v-.083c0-7.418 4.848-11.479 10.111-11.479a8.531 8.531 0 0 1 6.921 3.315v-8.04a3.149 3.149 0 1 1 6.3 0zm-17.032-8.247v.083c0 3.688 2.487 6.133 5.429 6.133s5.387-2.445 5.387-6.133v-.083c0-3.688-2.445-6.133-5.387-6.133s-5.429 2.403-5.429 6.133z" class="prefix__cls-2" data-name="Caminho 4853" transform="translate(-249.776)"/>
    </g>
</svg>
