<svg xmlns="http://www.w3.org/2000/svg" width="70" height="76.04" viewBox="0 0 70 76.04">
    <defs>
        <style>
            .prefix__cls-3{fill:#fed370}.prefix__cls-2,.prefix__cls-4{stroke:#ffa701;stroke-width:6px}.prefix__cls-4{stroke-linecap:round}.prefix__cls-2,.prefix__cls-4{fill:none}
        </style>
    </defs>
    <g id="prefix__Grupo_4783" data-name="Grupo 4783" transform="translate(-681 -463.96)">
        <g id="prefix__Retângulo_2552" data-name="Retângulo 2552" transform="translate(681 483)" style="stroke-linejoin:round;stroke-linecap:round;stroke:#ffa701;stroke-width:6px;fill:#fed370">
            <rect width="70" height="57" rx="6" style="stroke:none"/>
            <rect width="64" height="51" x="3" y="3" rx="3" style="fill:none"/>
        </g>
        <path id="prefix__Caminho_3370" d="M716 487.927v48.424" class="prefix__cls-2" data-name="Caminho 3370"/>
        <path id="prefix__Caminho_3371" d="M716 475.927v60.424" class="prefix__cls-2" data-name="Caminho 3371" transform="rotate(90 713 509.139)"/>
        <path id="prefix__Subtração_1" d="M-3990.086-3989.44h-15.222l-.242-.3v-.006a8.048 8.048 0 01.851-7.47 8.839 8.839 0 013.641-2.824 11.684 11.684 0 014.643-.957 9.956 9.956 0 013.857.736 6.344 6.344 0 012.837 2.239c1.265 1.854 1.328 4.381.183 7.31-.175.448-.358.877-.543 1.276z" class="prefix__cls-3" data-name="Subtração 1" transform="translate(4726 4468.939)"/>
        <path id="prefix__Subtração_2" d="M15.994 0H.772C.709.077.616.192.531.3v.006a8.048 8.048 0 00.851 7.47A8.837 8.837 0 005.017 10.6a11.684 11.684 0 004.643.957 9.956 9.956 0 003.857-.736 6.344 6.344 0 002.837-2.239c1.265-1.854 1.328-4.382.183-7.31C16.362.829 16.18.4 15.995 0z" class="prefix__cls-3" data-name="Subtração 2" transform="rotate(180 356.636 239.75)"/>
        <path id="prefix__Caminho_3372" d="M4729.5 4476.51c-1.259-12.9 19.51-14.417 15.578-2.017a14.883 14.883 0 01-.859 2.017" class="prefix__cls-4" data-name="Caminho 3372" transform="translate(-4009 -3999)"/>
        <path id="prefix__Caminho_3373" d="M4745.52 4476.51c1.259-12.9-19.51-14.417-15.578-2.017a14.883 14.883 0 00.859 2.017" class="prefix__cls-4" data-name="Caminho 3373" transform="translate(-4033 -3999)"/>
    </g>
</svg>
