<svg xmlns="http://www.w3.org/2000/svg" id="prefix__Chargebacks" width="48" height="48" viewBox="0 0 48 48">
    <defs>
        <style>
            .prefix__cls-1{fill:none}.prefix__cls-2{fill:#828282}
        </style>
    </defs>
    <path id="prefix__Retângulo_2714" d="M0 0H48V48H0z" class="prefix__cls-1" data-name="Retângulo 2714"/>
    <g id="prefix__inbox-24px" transform="translate(12 12)">
        <path id="prefix__Caminho_4865" d="M0 0h24v24H0z" class="prefix__cls-1" data-name="Caminho 4865"/>
    </g>
    <g id="prefix___002-dollar" data-name="002-dollar" transform="translate(12.002 11.501)">
        <g id="prefix__Grupo_5231" data-name="Grupo 5231" transform="translate(-.002 .499)">
            <g id="prefix__Grupo_5230" data-name="Grupo 5230">
                <path id="prefix__Caminho_4937" d="M46.47 99.254a.937.937 0 1 1 .206-1.31.932.932 0 0 1-.206 1.31z" class="prefix__cls-2" data-name="Caminho 4937" transform="translate(-24.922 -93)"/>
                <path id="prefix__Caminho_4938" d="M12.708 165a.937.937 0 1 1 .6-1.181.931.931 0 0 1-.6 1.181z" class="prefix__cls-2" data-name="Caminho 4938" transform="translate(10.152 -155.528)"/>
                <path id="prefix__Caminho_4939" d="M98.036 47.335a.937.937 0 0 1-.551-.18.937.937 0 1 1 .551.18z" class="prefix__cls-2" data-name="Caminho 4939" transform="translate(-79.487 -43.348)"/>
                <path id="prefix__Caminho_4940" d="M1.857 237.163c-.006.03-.014.059-.022.089s-.019.058-.031.086a.91.91 0 0 1-.039.083.9.9 0 0 1-.047.079.778.778 0 0 1-.055.074.916.916 0 0 1-.13.13.875.875 0 0 1-.074.055.977.977 0 0 1-.162.086c-.028.012-.057.022-.086.031s-.06.016-.089.023a.857.857 0 0 1-.091.014.909.909 0 0 1-.185 0 .881.881 0 0 1-.091-.014c-.03-.006-.06-.014-.089-.023s-.058-.019-.086-.031a.9.9 0 0 1-.083-.039.824.824 0 0 1-.079-.047.944.944 0 0 1-.142-.117.855.855 0 0 1-.062-.068.877.877 0 0 1-.055-.074.976.976 0 0 1-.086-.162c-.012-.028-.022-.057-.031-.086s-.016-.059-.022-.089a.838.838 0 0 1-.02-.091.91.91 0 0 1 0-.185.88.88 0 0 1 .014-.091c.006-.03.014-.06.022-.089s.019-.058.031-.086a.914.914 0 0 1 .039-.083.892.892 0 0 1 .047-.079.923.923 0 0 1 .185-.2.781.781 0 0 1 .074-.055.824.824 0 0 1 .079-.047.888.888 0 0 1 .083-.039c.028-.012.057-.022.086-.031s.059-.016.089-.022a.857.857 0 0 1 .091-.014.934.934 0 0 1 .185 0 .873.873 0 0 1 .091.014c.03.006.06.014.089.022s.058.019.086.031a.9.9 0 0 1 .083.039.887.887 0 0 1 .079.047.771.771 0 0 1 .074.055.912.912 0 0 1 .13.13.782.782 0 0 1 .055.074.974.974 0 0 1 .086.162c.012.028.022.057.031.086s.016.06.022.089a.855.855 0 0 1 .014.091.91.91 0 0 1 0 .185.862.862 0 0 1-.008.087z" class="prefix__cls-2" data-name="Caminho 4940" transform="translate(22.172 -224.98)"/>
                <path id="prefix__Caminho_4941" d="M163.668 13.839a.937.937 0 1 1 .892-.648.93.93 0 0 1-.892.648z" class="prefix__cls-2" data-name="Caminho 4941" transform="translate(-148.201 -11.425)"/>
                <path id="prefix__Caminho_4942" d="M170 91.631v.169a3.286 3.286 0 0 0 3.273 3.292h1.181a1.4 1.4 0 0 1 1.405 1.4v.612a1.409 1.409 0 0 1-1.405 1.409h-1.919a1.024 1.024 0 0 1-.988-1.031.937.937 0 0 0-1.875 0 2.888 2.888 0 0 0 2.863 2.906h.231v.984a.937.937 0 0 0 1.875 0v-.99a3.286 3.286 0 0 0 3.094-3.278V96.5a3.282 3.282 0 0 0-3.28-3.276h-1.181a1.409 1.409 0 0 1-1.4-1.417v-.174a1.405 1.405 0 0 1 1.4-1.409h1.117a.994.994 0 0 1 1 .984.938.938 0 1 0 1.875 0 2.869 2.869 0 0 0-2.625-2.848v-1.09a.937.937 0 0 0-1.875 0v1.118A3.286 3.286 0 0 0 170 91.631z" class="prefix__cls-2" data-name="Caminho 4942" transform="translate(-161.699 -82.3)"/>
                <path id="prefix__Caminho_4943" d="M461.234 308.939a.938.938 0 1 1-.6 1.182.938.938 0 0 1 .6-1.182z" class="prefix__cls-2" data-name="Caminho 4943" transform="translate(-460.046 -294.409)"/>
                <path id="prefix__Caminho_4944" d="M0 335.457v-.016c0-.024.006-.048.011-.072a.93.93 0 0 1 .108-.29l.026-.042.018-.027.038-.051.015-.018c.015-.018.031-.036.047-.052l.011-.011.052-.047.018-.015.05-.038.027-.018.043-.026a.93.93 0 0 1 .289-.108c.024 0 .049-.008.073-.011a.939.939 0 0 1 .105-.006 10.177 10.177 0 0 0 8.657-4.872H7.445a.938.938 0 0 1 0-1.875H10.2a2.747 2.747 0 0 1 1.957.807 2.805 2.805 0 0 1 .821 2.01v2.71a.937.937 0 1 1-1.875 0v-2.536a12.03 12.03 0 0 1-3.649 3.7 11.956 11.956 0 0 1-6.521 1.926.875.875 0 0 1-.092 0H.828c-.025 0-.05-.007-.075-.011a.93.93 0 0 1-.287-.108l-.045-.027-.021-.017c-.018-.012-.035-.025-.052-.039l-.016-.014-.053-.048-.01-.01c-.017-.017-.033-.035-.048-.053l-.014-.017-.039-.052-.017-.025-.028-.046a.93.93 0 0 1-.107-.288c0-.024-.008-.048-.011-.072v-.015a.867.867 0 0 1 0-.09H0a.857.857 0 0 1 0-.09z" class="prefix__cls-2" data-name="Caminho 4944" transform="translate(11.064 -312.485)"/>
                <path id="prefix__Caminho_4945" d="M236.476 2.655a.938.938 0 0 1 .938.937v2.537A12 12 0 0 1 247.585.5a.946.946 0 0 1 .105.006c.025 0 .05.007.075.011a.93.93 0 0 1 .286.107l.046.028a.936.936 0 0 1 .092.068c.019.016.037.032.055.05l.008.008c.017.017.034.036.05.055l.013.016.04.053.016.023.028.046a.932.932 0 0 1 .107.287c0 .024.008.049.011.073v.014a.865.865 0 0 1 0 .092.884.884 0 0 1 0 .092v.014c0 .024-.006.049-.011.073a.93.93 0 0 1-.108.287l-.028.046-.016.023c-.012.018-.026.036-.039.053l-.014.016c-.015.019-.032.037-.049.054l-.009.009c-.017.017-.035.033-.054.049l-.016.013c-.017.014-.035.027-.053.039l-.025.017-.045.027a.93.93 0 0 1-.288.108c-.024 0-.049.009-.074.011h-.014a.88.88 0 0 1-.091 0 10.176 10.176 0 0 0-8.657 4.872h2.143a.937.937 0 0 1 0 1.875h-2.751a2.747 2.747 0 0 1-1.957-.807 2.805 2.805 0 0 1-.821-2.01V3.593a.937.937 0 0 1 .936-.938z" class="prefix__cls-2" data-name="Caminho 4945" transform="translate(-235.538 -.499)"/>
                <path id="prefix__Caminho_4946" d="M427.48 374.7a.937.937 0 1 1-.206 1.31.938.938 0 0 1 .206-1.31z" class="prefix__cls-2" data-name="Caminho 4946" transform="translate(-424.982 -356.95)"/>
                <path id="prefix__Caminho_4947" d="M472.1 236.8c.006-.03.014-.06.023-.089s.019-.058.031-.086a.9.9 0 0 1 .039-.083.829.829 0 0 1 .047-.079.856.856 0 0 1 .055-.074.91.91 0 0 1 .13-.13.777.777 0 0 1 .074-.055.972.972 0 0 1 .162-.086c.028-.012.057-.022.086-.031s.06-.016.089-.022a.855.855 0 0 1 .091-.014.933.933 0 0 1 .185 0 .881.881 0 0 1 .091.014c.03.006.06.014.089.022s.058.019.086.031a.912.912 0 0 1 .083.039.887.887 0 0 1 .079.047.771.771 0 0 1 .074.055.936.936 0 0 1 .185.2.829.829 0 0 1 .047.079.877.877 0 0 1 .039.083c.012.028.022.057.031.086s.016.06.022.089a.834.834 0 0 1 .014.091.9.9 0 0 1 0 .185.864.864 0 0 1-.014.091c-.006.03-.014.06-.022.089s-.019.058-.031.086a.972.972 0 0 1-.086.162.949.949 0 0 1-.117.142.855.855 0 0 1-.068.062.87.87 0 0 1-.074.055.978.978 0 0 1-.162.086c-.028.012-.057.022-.086.031s-.06.016-.089.023a.857.857 0 0 1-.091.014.936.936 0 0 1-.276-.014c-.03-.006-.06-.014-.089-.023s-.058-.019-.086-.031a.978.978 0 0 1-.162-.086.924.924 0 0 1-.2-.185.869.869 0 0 1-.055-.074.978.978 0 0 1-.086-.162c-.012-.028-.022-.057-.031-.086s-.016-.06-.023-.089a.95.95 0 0 1-.018-.183.873.873 0 0 1 0-.092.9.9 0 0 1 .014-.088z" class="prefix__cls-2" data-name="Caminho 4947" transform="translate(-472.079 -224.979)"/>
                <path id="prefix__Caminho_4948" d="M376.465 426.794a.937.937 0 1 1-1.31.206.937.937 0 0 1 1.31-.206z" class="prefix__cls-2" data-name="Caminho 4948" transform="translate(-370.416 -406.601)"/>
                <path id="prefix__Caminho_4949" d="M310.56 460.154a.937.937 0 1 1-1.181.6.937.937 0 0 1 1.181-.6z" class="prefix__cls-2" data-name="Caminho 4949" transform="translate(-301.69 -438.521)"/>
            </g>
        </g>
    </g>
</svg>
