<svg xmlns="http://www.w3.org/2000/svg" id="prefix__Funding_Schedule" width="48" height="48" data-name="Funding Schedule" viewBox="0 0 48 48">
    <defs>
        <style>
            .prefix__cls-2{fill:#ffa701}
        </style>
    </defs>
    <path id="prefix__Retângulo_2711" d="M0 0H48V48H0z" data-name="Retângulo 2711" style="fill:none"/>
    <g id="prefix___004-calendar" data-name="004-calendar" transform="translate(12 12)">
        <g id="prefix__Grupo_5235" data-name="Grupo 5235">
            <g id="prefix__Grupo_5234" data-name="Grupo 5234">
                <circle id="prefix__Elipse_128" cx=".938" cy=".938" r=".938" class="prefix__cls-2" data-name="Elipse 128" transform="translate(13.078 8.906)"/>
                <circle id="prefix__Elipse_129" cx=".938" cy=".938" r=".938" class="prefix__cls-2" data-name="Elipse 129" transform="translate(13.078 12.984)"/>
                <circle id="prefix__Elipse_130" cx=".938" cy=".938" r=".938" class="prefix__cls-2" data-name="Elipse 130" transform="translate(17.156 8.906)"/>
                <path id="prefix__Caminho_4952" d="M23.063 11.719a.937.937 0 0 0 .937-.938V5.625a3.754 3.754 0 0 0-3.75-3.75h-1.219V.937a.937.937 0 0 0-1.875 0v.937h-4.265V.937a.937.937 0 1 0-1.875 0v.937H6.8V.937a.937.937 0 1 0-1.875 0v.937H3.75A3.754 3.754 0 0 0 0 5.625V20.25A3.754 3.754 0 0 0 3.75 24h11.812a.94.94 0 0 0 .095 0h.093a.937.937 0 0 0 .676-.287l7.312-7.594a.937.937 0 0 0-.675-1.588h-4.5a3.754 3.754 0 0 0-3.75 3.75v3.844H3.75a1.877 1.877 0 0 1-1.875-1.875V5.625A1.877 1.877 0 0 1 3.75 3.75h1.172v.938a.937.937 0 1 0 1.875 0V3.75h4.219v.938a.937.937 0 1 0 1.875 0V3.75h4.266v.938a.938.938 0 0 0 1.875 0V3.75h1.218a1.877 1.877 0 0 1 1.875 1.875v5.156a.937.937 0 0 0 .938.938zm-6.375 6.563a1.877 1.877 0 0 1 1.875-1.875h2.3l-4.171 4.331z" class="prefix__cls-2" data-name="Caminho 4952"/>
                <circle id="prefix__Elipse_131" cx=".938" cy=".938" r=".938" class="prefix__cls-2" data-name="Elipse 131" transform="translate(4.922 8.906)"/>
                <circle id="prefix__Elipse_132" cx=".938" cy=".938" r=".938" class="prefix__cls-2" data-name="Elipse 132" transform="translate(9 12.984)"/>
                <circle id="prefix__Elipse_133" cx=".938" cy=".938" r=".938" class="prefix__cls-2" data-name="Elipse 133" transform="translate(4.922 17.063)"/>
                <circle id="prefix__Elipse_134" cx=".938" cy=".938" r=".938" class="prefix__cls-2" data-name="Elipse 134" transform="translate(4.922 12.984)"/>
                <circle id="prefix__Elipse_135" cx=".938" cy=".938" r=".938" class="prefix__cls-2" data-name="Elipse 135" transform="translate(9 17.063)"/>
                <circle id="prefix__Elipse_136" cx=".938" cy=".938" r=".938" class="prefix__cls-2" data-name="Elipse 136" transform="translate(9 8.906)"/>
            </g>
        </g>
    </g>
</svg>
