<svg xmlns="http://www.w3.org/2000/svg" width="48" height="48" viewBox="0 0 48 48">
    <defs>
        <style>
            .prefix__cls-2{fill:#ffa701}
        </style>
    </defs>
    <g id="prefix___004-calendar" data-name="004-calendar" transform="translate(14 14)">
        <path id="prefix__Retângulo_2954" d="M0 0H48V48H0z" data-name="Retângulo 2954" transform="translate(-14 -14)" style="fill:none"/>
        <g id="prefix__Grupo_5235" data-name="Grupo 5235">
            <g id="prefix__Grupo_5234" data-name="Grupo 5234">
                <circle id="prefix__Elipse_128" cx=".781" cy=".781" r=".781" class="prefix__cls-2" data-name="Elipse 128" transform="translate(10.898 7.422)"/>
                <circle id="prefix__Elipse_129" cx=".781" cy=".781" r=".781" class="prefix__cls-2" data-name="Elipse 129" transform="translate(10.898 10.82)"/>
                <circle id="prefix__Elipse_130" cx=".781" cy=".781" r=".781" class="prefix__cls-2" data-name="Elipse 130" transform="translate(14.297 7.422)"/>
                <path id="prefix__Caminho_4952" d="M19.219 9.766A.781.781 0 0 0 20 8.984v-4.3a3.129 3.129 0 0 0-3.125-3.125h-1.016V.781a.781.781 0 0 0-1.562 0v.781h-3.555V.781a.781.781 0 0 0-1.562 0v.781H5.664V.781a.781.781 0 0 0-1.564 0v.781h-.975A3.129 3.129 0 0 0 0 4.688v12.187A3.129 3.129 0 0 0 3.125 20h9.844a.784.784 0 0 0 .079 0h.077a.781.781 0 0 0 .563-.239l6.094-6.328a.781.781 0 0 0-.563-1.323h-3.75a3.129 3.129 0 0 0-3.125 3.125v3.2H3.125a1.564 1.564 0 0 1-1.562-1.562V4.688a1.564 1.564 0 0 1 1.562-1.563H4.1v.781a.781.781 0 0 0 1.563 0v-.781H9.18v.781a.781.781 0 0 0 1.563 0v-.781H14.3v.781a.781.781 0 0 0 1.563 0v-.781h1.016a1.564 1.564 0 0 1 1.563 1.563v4.3a.781.781 0 0 0 .777.778zm-5.312 5.469a1.564 1.564 0 0 1 1.563-1.562h1.913l-3.476 3.609z" class="prefix__cls-2" data-name="Caminho 4952"/>
                <circle id="prefix__Elipse_131" cx=".781" cy=".781" r=".781" class="prefix__cls-2" data-name="Elipse 131" transform="translate(4.102 7.422)"/>
                <circle id="prefix__Elipse_132" cx=".781" cy=".781" r=".781" class="prefix__cls-2" data-name="Elipse 132" transform="translate(7.5 10.82)"/>
                <circle id="prefix__Elipse_133" cx=".781" cy=".781" r=".781" class="prefix__cls-2" data-name="Elipse 133" transform="translate(4.102 14.219)"/>
                <circle id="prefix__Elipse_134" cx=".781" cy=".781" r=".781" class="prefix__cls-2" data-name="Elipse 134" transform="translate(4.102 10.82)"/>
                <circle id="prefix__Elipse_135" cx=".781" cy=".781" r=".781" class="prefix__cls-2" data-name="Elipse 135" transform="translate(7.5 14.219)"/>
                <circle id="prefix__Elipse_136" cx=".781" cy=".781" r=".781" class="prefix__cls-2" data-name="Elipse 136" transform="translate(7.5 7.422)"/>
            </g>
        </g>
    </g>
</svg>
