<svg xmlns="http://www.w3.org/2000/svg" id="prefix__INFO_ICON" width="24" height="24" data-name="INFO ICON" viewBox="0 0 24 24">
    <path id="prefix__Path_4905" d="M0 0h24v24H0z" data-name="Path 4905" style="fill:none"/>
    <path id="prefix__Path_4906" d="M12 2a10 10 0 1 0 10 10A10 10 0 0 0 12 2zm1 15h-2v-6h2zm0-8h-2V7h2z" data-name="Path 4906" style="fill:#adadad"/>
</svg>
