<svg xmlns="http://www.w3.org/2000/svg" id="prefix__Grupo_4675" width="48" height="48" data-name="Grupo 4675" viewBox="0 0 48 48">
    <defs>
        <style>
            .prefix__cls-2{fill:#4c4c4c}
        </style>
    </defs>
    <path id="prefix__Retângulo_2456" d="M0 0H48V48H0z" data-name="Retângulo 2456" style="fill:none"/>
    <g id="prefix__loading" transform="translate(6 -32)">
        <g id="prefix__Grupo_5464" data-name="Grupo 5464" transform="translate(6.266 40)">
            <g id="prefix__Grupo_5463" data-name="Grupo 5463">
                <path id="prefix__Caminho_5076" d="M117.023 57.628a1.445 1.445 0 0 0-2.044-.01L111.66 60.9v-5.291a15.614 15.614 0 0 0-22.942-13.783h-.009l-.019.01-.042.023-.021.011-.015.008-.251.139-.017.01c-.34.193-.674.4-1 .618a1.445 1.445 0 1 0 1.614 2.4 12.721 12.721 0 0 1 19.81 10.56v5.328l-3.326-3.247a1.445 1.445 0 0 0-2.019 2.068l3.737 3.648a4.371 4.371 0 0 0 6.1-.021l3.752-3.714a1.445 1.445 0 0 0 .011-2.039z" class="prefix__cls-2" data-name="Caminho 5076" transform="translate(-86.707 -40)"/>
            </g>
        </g>
        <g id="prefix__Grupo_5466" data-name="Grupo 5466" transform="translate(0 53.298)">
            <g id="prefix__Grupo_5465" data-name="Grupo 5465">
                <path id="prefix__Caminho_5077" d="M1.558 224.017a1.444 1.444 0 0 0-1.53 1.356c-.019.315-.029.636-.029.954 0 .212 0 .426.013.636a1.445 1.445 0 0 0 1.443 1.387h.059a1.445 1.445 0 0 0 1.386-1.5c-.007-.172-.01-.347-.011-.52 0-.259.008-.522.023-.779a1.445 1.445 0 0 0-1.354-1.534z" class="prefix__cls-2" data-name="Caminho 5077" transform="translate(0 -224.014)"/>
            </g>
        </g>
        <g id="prefix__Grupo_5468" data-name="Grupo 5468" transform="translate(1.399 60.311)">
            <g id="prefix__Grupo_5467" data-name="Grupo 5467">
                <path id="prefix__Caminho_5078" d="M22.735 323.011a12.711 12.711 0 0 1-.622-1.137 1.445 1.445 0 1 0-2.6 1.256 15.611 15.611 0 0 0 .764 1.4 1.445 1.445 0 0 0 2.462-1.515z" class="prefix__cls-2" data-name="Caminho 5078" transform="translate(-19.365 -321.057)"/>
            </g>
        </g>
        <g id="prefix__Grupo_5470" data-name="Grupo 5470" transform="translate(12.722 68.256)">
            <g id="prefix__Grupo_5469" data-name="Grupo 5469">
                <path id="prefix__Caminho_5079" d="M178.933 431.068a12.98 12.98 0 0 1-1.3-.065 1.445 1.445 0 1 0-.291 2.876 15.841 15.841 0 0 0 1.587.08 1.445 1.445 0 1 0 0-2.891z" class="prefix__cls-2" data-name="Caminho 5079" transform="translate(-176.046 -430.995)"/>
            </g>
        </g>
        <g id="prefix__Grupo_5472" data-name="Grupo 5472" transform="translate(6.026 65.758)">
            <g id="prefix__Grupo_5471" data-name="Grupo 5471">
                <path id="prefix__Caminho_5080" d="M86.765 397.395a12.8 12.8 0 0 1-1.1-.691A1.445 1.445 0 1 0 84 399.068a15.673 15.673 0 0 0 1.347.848 1.445 1.445 0 1 0 1.413-2.521z" class="prefix__cls-2" data-name="Caminho 5080" transform="translate(-83.39 -396.44)"/>
            </g>
        </g>
        <g id="prefix__Grupo_5474" data-name="Grupo 5474" transform="translate(1.528 46.504)">
            <g id="prefix__Grupo_5473" data-name="Grupo 5473">
                <path id="prefix__Caminho_5081" d="M24.09 130.237a1.445 1.445 0 0 0-2 .432 15.636 15.636 0 0 0-.793 1.381 1.445 1.445 0 1 0 2.577 1.309 12.734 12.734 0 0 1 .646-1.125 1.445 1.445 0 0 0-.43-1.997z" class="prefix__cls-2" data-name="Caminho 5081" transform="translate(-21.143 -130.007)"/>
            </g>
        </g>
    </g>
</svg>
