<svg xmlns="http://www.w3.org/2000/svg" width="21" height="28.295" viewBox="0 0 21 28.295">
    <defs>
        <style>
            .prefix__cls-1{fill:#707070}
        </style>
    </defs>
    <g id="prefix__email" transform="translate(-7.5 -78.353)">
        <g id="prefix__surface1" transform="translate(7.5 78.353)">
            <path id="prefix__Caminho_4848" d="M18.789 10.887v-2.6a8.289 8.289 0 0 0-16.579 0v2.6A2.768 2.768 0 0 0 0 13.595v3.137a.553.553 0 0 0 1.105 0v-3.137a1.66 1.66 0 0 1 1.658-1.658h15.474a1.66 1.66 0 0 1 1.658 1.658v11.937a1.661 1.661 0 0 1-1.105 1.563v-3.332a.553.553 0 1 0-1.105 0v3.426H2.763a1.66 1.66 0 0 1-1.658-1.658v-4.365a.553.553 0 0 0-1.105 0v4.366a2.766 2.766 0 0 0 2.763 2.763h15.474A2.766 2.766 0 0 0 21 25.532V13.595a2.768 2.768 0 0 0-2.211-2.708zM6.3 10.832V8.289a4.2 4.2 0 0 1 8.4 0v2.542zm9.505 0V8.289a5.305 5.305 0 0 0-10.611 0v2.542H3.316V8.289a7.184 7.184 0 1 1 14.368 0v2.542zm0 0" class="prefix__cls-1" data-name="Caminho 4848"/>
            <path id="prefix__Caminho_4849" d="M.553 333.593a.552.552 0 1 0-.553-.552.553.553 0 0 0 .553.553zm0 0" class="prefix__cls-1" data-name="Caminho 4849" transform="translate(0 -314.114)"/>
            <path id="prefix__Caminho_4850" d="M139.106 285.977a1.66 1.66 0 0 0 1.658-1.658v-2.935a2.984 2.984 0 1 0-3.316-.009v2.944a1.66 1.66 0 0 0 1.658 1.658zm-1.872-7.078a1.879 1.879 0 1 1 2.727 1.676.552.552 0 0 0-.3.493v3.251a.553.553 0 1 1-1.105 0v-3.259a.552.552 0 0 0-.3-.491 1.873 1.873 0 0 1-1.022-1.669zm0 0" class="prefix__cls-1" data-name="Caminho 4850" transform="translate(-128.606 -260.666)"/>
            <path id="prefix__Caminho_4851" d="M320.553 380.105a.553.553 0 1 0-.391-.162.556.556 0 0 0 .391.162zm0 0" class="prefix__cls-1" data-name="Caminho 4851" transform="translate(-302.316 -358.055)"/>
        </g>
    </g>
</svg>
