<svg xmlns="http://www.w3.org/2000/svg" width="160" height="160" viewBox="0 0 160 160">
    <defs>
        <style>
            .prefix__cls-2{fill:#fed370}.prefix__cls-3{fill:#eda929}
        </style>
    </defs>
    <g id="prefix__Grupo_3583" data-name="Grupo 3583" transform="translate(-640 -450)">
        <path id="prefix__Retângulo_2339" d="M0 0H160V160H0z" data-name="Retângulo 2339" transform="translate(640 450)" style="fill:none"/>
        <g id="prefix__locker-icon" transform="translate(-4833.693 -1166)">
            <g id="prefix__Grupo_2293" data-name="Grupo 2293" transform="translate(5507.693 1641.402)">
                <path id="prefix__Caminho_2451" d="M714.915 1588.846h-15.962v-14.156a3.678 3.678 0 0 0-3.673-3.674h-18.136a3.678 3.678 0 0 0-3.674 3.674v14.156h-15.962v-15.736a16.629 16.629 0 0 1 16.61-16.611H698.3a16.63 16.63 0 0 1 16.612 16.611z" class="prefix__cls-2" data-name="Caminho 2451" transform="translate(-639.918 -1556.5)"/>
                <g id="prefix__Grupo_2289" data-name="Grupo 2289" transform="translate(1.992 29.95)">
                    <path id="prefix__Caminho_1917" d="M715.052 1668.313H652.6a12.848 12.848 0 0 1-12.834-12.834V1603.4a12.848 12.848 0 0 1 12.834-12.835h62.452a12.849 12.849 0 0 1 12.835 12.835v52.077a12.849 12.849 0 0 1-12.835 12.836z" class="prefix__cls-2" data-name="Caminho 1917" transform="translate(-639.766 -1590.567)"/>
                </g>
                <g id="prefix__Grupo_2290" data-name="Grupo 2290" transform="translate(0 28.192)">
                    <path id="prefix__Caminho_1918" d="M716.19 1669.829h-65.275a13.43 13.43 0 0 1-13.415-13.415v-54.432a13.43 13.43 0 0 1 13.415-13.415h65.275a13.43 13.43 0 0 1 13.415 13.415v54.432a13.43 13.43 0 0 1-13.415 13.415zm-65.275-76.866a9.03 9.03 0 0 0-9.019 9.019v54.432a9.03 9.03 0 0 0 9.019 9.019h65.275a9.03 9.03 0 0 0 9.019-9.019v-54.432a9.03 9.03 0 0 0-9.019-9.019z" class="prefix__cls-3" data-name="Caminho 1918" transform="translate(-637.5 -1588.568)"/>
                </g>
                <g id="prefix__Grupo_2291" data-name="Grupo 2291" transform="translate(17.59)">
                    <path id="prefix__Caminho_1919" d="M714.915 1588.846h-15.962v-14.156a3.678 3.678 0 0 0-3.673-3.674h-18.136a3.678 3.678 0 0 0-3.674 3.674v14.156h-15.962v-15.736a16.629 16.629 0 0 1 16.61-16.611H698.3a16.63 16.63 0 0 1 16.612 16.611zm-11.567-4.4h7.171v-11.34A12.229 12.229 0 0 0 698.3 1560.9h-24.182a12.228 12.228 0 0 0-12.218 12.21v11.34h7.17v-9.761a8.079 8.079 0 0 1 8.07-8.07h18.14a8.078 8.078 0 0 1 8.069 8.07z" class="prefix__cls-3" data-name="Caminho 1919" transform="translate(-657.508 -1556.5)"/>
                </g>
                <path id="prefix__Caminho_1920" d="M675.768 1635.4l6.924 6.923a2.789 2.789 0 0 0 3.853 0l13.847-13.846a2.725 2.725 0 0 0-3.854-3.854l-11.921 11.921-5-5a2.725 2.725 0 0 0-3.853 3.854z" data-name="Caminho 1920" transform="translate(-642.029 -1564.636)" style="fill:#fff"/>
                <g id="prefix__Grupo_2292" data-name="Grupo 2292" transform="translate(22.505 45.276)">
                    <path id="prefix__Caminho_1921" d="M686.646 1655.094a23.547 23.547 0 1 1 23.547-23.547 23.573 23.573 0 0 1-23.547 23.547zm0-42.7a19.151 19.151 0 1 0 19.151 19.151 19.172 19.172 0 0 0-19.151-19.145z" class="prefix__cls-3" data-name="Caminho 1921" transform="translate(-663.099 -1608)"/>
                </g>
            </g>
        </g>
    </g>
</svg>
